2018-03-27 20:13:19,498 - PDT - INFO - ### PerfModelGen Execution Start ###
2018-03-27 20:13:19,499 - PDT - INFO - Program Information:Program Name:bin v0.1 (2018-03-06)
2018-03-27 20:13:19,501 - PDT - DEBUG - Input Values Considered:Namespace(approach='0', clean_input_col='0', data_column='P', diplay_all_combination='no', end_row='82', factor='10', header_row_num='7', identifiers='_', index_column='F', input_col_as_data='I', input_file_name='NTI_W-I-16-511_1-2_MySQL5.7_Single_Measurement_Result_Summary.xlsx', input_folder_path='D:\\PDT_integration\\RTool\\input', judge_criteria='1', log_folder_path='D:\\PDT_integration\\RTool\\logs', mapping_input_column='H,I', mapping_input_names='no_rows,size_rows', measurement_sheet='Insert', method='K-Mean', mode='2', my_config=None, output_folder_path='D:\\PDT_integration\\RTool\\output', pdt_log_folder_path=None, r_automation_path=None, r_data_column=None, r_end_row=None, r_header_row_num=None, r_identifiers=None, r_index_column=None, r_input_col_as_data=None, r_input_file_name=None, r_mapping_input_column=None, r_mapping_input_names=None, r_measurement_sheet=None, r_start_row=None, sorted_graph_limit='10', start_row='8', tf_educateAI_path=None, tf_test_file_name=None)
2018-03-27 20:13:19,501 - PDT - DEBUG - Input Values Source:Config File (/home/necadmin/pdt_integration/RTool/PerfModelGen/config/PerModelGen.conf):
  log_folder_path:   D:\PDT_integration\RTool\logs
  input_folder_path: D:\PDT_integration\RTool\input
  output_folder_path:D:\PDT_integration\RTool\output
  sorted_graph_limit:10
  diplay_all_combination:no
  measurement_sheet: Insert
  index_column:      F
  mapping_input_column:H,I
  mapping_input_names:no_rows,size_rows
  data_column:       P
  start_row:         8
  end_row:           82
  identifiers:       _
  input_file_name:   NTI_W-I-16-511_1-2_MySQL5.7_Single_Measurement_Result_Summary.xlsx
  header_row_num:    7
  approach:          0
  mode:              2
  judge_criteria:    1
  method:            K-Mean
  input_col_as_data: I
  clean_input_col:   0
  factor:            10

2018-03-27 20:13:19,540 - PDT - DEBUG - ##### Start Process for R_Input file ####
2018-03-27 20:13:19,541 - PDT - DEBUG - Excel Sheet Name-->IntegrityMonitoring
2018-03-27 20:13:19,542 - PDT - INFO - Reading measurement summary sheet.
2018-03-27 20:13:19,564 - PDT - INFO - Index([u'Scenario ID'], dtype='object')
2018-03-27 20:13:21,343 - PDT - DEBUG - Mode 2 starts processing
2018-03-27 20:13:21,348 - PDT - DEBUG - Mode 2 starts processing
2018-03-27 20:13:21,351 - PDT - DEBUG - #START PROCESSING FOR R_SCRIPT_CREATER#
2018-03-27 20:13:21,351 - PDT - INFO - #########Start#############
2018-03-27 20:13:21,352 - PDT - INFO - R_input_B.csv file have 3 no. of column
2018-03-27 20:13:21,352 - PDT - INFO - R_input_B.csv file have 8 binary combination
2018-03-27 20:13:21,352 - PDT - INFO - Creating Output CSV file
2018-03-27 20:13:21,353 - PDT - DEBUG - #CSV writer Class#
2018-03-27 20:13:21,353 - PDT - DEBUG - #Write Data into CSV file#
2018-03-27 20:13:21,354 - PDT - DEBUG - OUTPUT CSV file is created
2018-03-27 20:13:21,354 - PDT - INFO - R_script_create_B.CSV file Creating Successfully
2018-03-27 20:13:21,355 - PDT - INFO - #########End#############
2018-03-27 20:13:21,355 - PDT - INFO - #########Start#############
2018-03-27 20:13:21,355 - PDT - INFO - R_input_A.csv file have 3 no. of column
2018-03-27 20:13:21,356 - PDT - INFO - R_input_A.csv file have 8 binary combination
2018-03-27 20:13:21,356 - PDT - INFO - Creating Output CSV file
2018-03-27 20:13:21,356 - PDT - DEBUG - #CSV writer Class#
2018-03-27 20:13:21,356 - PDT - DEBUG - #Write Data into CSV file#
2018-03-27 20:13:21,357 - PDT - DEBUG - OUTPUT CSV file is created
2018-03-27 20:13:21,357 - PDT - INFO - R_script_create_A.CSV file Creating Successfully
2018-03-27 20:13:21,357 - PDT - INFO - #########End#############
2018-03-27 20:20:09,303 - PDT - DEBUG - ### PerfModelGen Execution End ###
2018-03-27 20:20:09,303 - PDT - DEBUG - ### PerfModelGen Execution End ###
